Chapter 11 Differential analysis | Data analysis based on XMAS 2.0 package in microbiota data
…
11.6.4.3 LDA scores’ comparison

LDA scores of the 14 overlapping features are similar.

amplicon_ps_genus_lefse

amplicon_joint_output <- purrr::reduce(
    .x = list(amplicon_ps_genus_lefse_conda, amplicon_ps_genus_lefse_galaxy, 
              amplicon_ps_genus_lefse_R, amplicon_ps_genus_lefse_R2),
    .f = ~ inner_join(.x, .y, by = "TaxaID")) %>% 
    dplyr::select(TaxaID, lefse_conda_LDA, lefse_galaxy_LDA, 
                  lefse_R_LDA, lefse_R2_LDA)
amplicon_joint_output

## # A tibble: 57 × 5
##    TaxaID                          lefse_conda_LDA lefse_galaxy_LDA lefse_R_LDA lefse_R2_LDA
##    <chr>                                     <dbl>            <dbl>       <dbl>        <dbl>
##  1 g__Bacteroides                            -5.47            -5.46       -5.47        -5.76
##  2 g__Lachnospiraceae_unclassified           -4.47            -4.45       -4.45        -4.77
##  3 g__Ruminococcaceae_unclassified           -4.46            -4.41       -4.42        -4.78
##  4 g__Lachnospira                            -4.36            -4.38       -4.36        -4.69
##  5 g__Faecalibacterium                       -4.20            -4.18       -4.16        -4.46
##  6 g__Phascolarctobacterium                  -4.15            -4.18       -4.18        -4.41
##  7 g__Clostridiales_unclassified             -4.03            -4.06       -4.03        -4.37
##  8 g__Akkermansia                            -3.91            -4.04       -4.11        -4.17
##  9 g__Oscillospira                           -3.87            -3.89       -3.86        -4.20
## 10 g__Rikenellaceae_unclassified             -3.87            -3.91       -3.89        -4.28
## # … with 47 more rows
…
